This is BibTeX, Version 0.99d (TeX Live 2011)
Capacity: max_strings=35307, hash_size=35307, hash_prime=30011
The top-level auxiliary file: lyahalo.aux
The style file: apj.bst
Database file #1: lyahalo.bib
Reallocated wiz_functions (elt_size=4) to 6000 items from 3000.
Warning--empty publisher in Osterbrock1989
You've used 63 entries,
            3085 wiz_defined-function locations,
            1147 strings with 20612 characters,
and the built_in function-call counts, 30639 in all, are:
= -- 2552
> -- 2287
< -- 20
+ -- 764
- -- 835
* -- 2647
:= -- 5799
add.period$ -- 63
call.type$ -- 63
change.case$ -- 434
chr.to.int$ -- 62
cite$ -- 64
duplicate$ -- 1197
empty$ -- 1771
format.name$ -- 920
if$ -- 6051
int.to.chr$ -- 2
int.to.str$ -- 0
missing$ -- 62
newline$ -- 193
num.names$ -- 253
pop$ -- 481
preamble$ -- 1
purify$ -- 434
quote$ -- 0
skip$ -- 971
stack$ -- 0
substring$ -- 1269
swap$ -- 8
text.length$ -- 1
text.prefix$ -- 0
top$ -- 0
type$ -- 564
warning$ -- 1
while$ -- 238
width$ -- 0
write$ -- 632
(There was 1 warning)
