\relax 
\providecommand\HyperFirstAtBeginDocument{\AtBeginDocument}
\HyperFirstAtBeginDocument{\ifx\hyper@anchor\@undefined
\global\let\oldcontentsline\contentsline
\gdef\contentsline#1#2#3#4{\oldcontentsline{#1}{#2}{#3}}
\global\let\oldnewlabel\newlabel
\gdef\newlabel#1#2{\newlabelxx{#1}#2}
\gdef\newlabelxx#1#2#3#4#5#6{\oldnewlabel{#1}{{#2}{#3}}}
\AtEndDocument{\ifx\hyper@anchor\@undefined
\let\contentsline\oldcontentsline
\let\newlabel\oldnewlabel
\fi}
\fi}
\global\let\hyper@last\relax 
\gdef\HyperFirstAtBeginDocument#1{#1}
\providecommand\HyField@AuxAddToFields[1]{}
\citation{Bahcall1969}
\citation{Steidel2001}
\citation{Steidel2010}
\citation{Shapley2003}
\citation{Verhamme2006}
\citation{Barnes2014}
\citation{Zheng2011}
\citation{Neufeld1991}
\citation{Hansen2006}
\citation{Hu1998}
\citation{Cassata2011}
\citation{Furlanetto2005}
\citation{Weidinger2005}
\citation{Nagamine2010}
\citation{HennawiProchaska2013}
\citation{Kollmeier2010}
\citation{Cantalupo2007}
\citation{Cantalupo2005}
\citation{Rauch2008a}
\citation{Rauch2008b}
\citation{Adelberger2006}
\citation{Osterbrock1989}
\citation{GouldWeinberg1996}
\newlabel{firstpage}{{}{1}{\relax }{Doc-Start}{}}
\@writefile{toc}{\contentsline {section}{\numberline {1}Introduction}{1}{section.1}}
\newlabel{sec:intro}{{1}{1}{Introduction\relax }{section.1}{}}
\citation{Steidel2011}
\citation{Matsuda2012}
\citation{Momose2014}
\citation{Jones2012}
\citation{Steidel2010}
\citation{Matsuda2012}
\citation{HennawiProchaska2013}
\citation{Steidel2011}
\citation{Momose2014}
\citation{Matsuda2012}
\citation{Rauch2008a}
\citation{Rauch2008b}
\citation{Jiang2013}
\citation{Feldmeier2013}
\citation{Lake2015}
\citation{DijkstraKramer2012}
\citation{Dijkstra2007}
\citation{Verhamme2012}
\citation{Zheng2011}
\citation{Barnes2011}
\citation{Laursen2007}
\citation{Laursen2011}
\citation{Steidel2011}
\citation{Matsuda2012}
\citation{Lake2015}
\citation{Dijkstra2007}
\citation{Dijkstra2008}
\citation{FaucherGiguere2008}
\citation{Schechter1976}
\citation{Reddy2009}
\citation{Bouwens2007}
\citation{Kuhlen2012}
\citation{Bielby2015}
\citation{Gawiser2007}
\citation{Gawiser2007}
\citation{Iliev2003}
\citation{Reddy2009}
\citation{Bouwens2007}
\citation{Kuhlen2012}
\citation{Matsuda2012}
\@writefile{toc}{\contentsline {section}{\numberline {2}Characterisation of the overdense region around a Lyman Alpha Emitter}{3}{section.2}}
\newlabel{sec:environment}{{2}{3}{Characterisation of the overdense region around a Lyman Alpha Emitter\relax }{section.2}{}}
\@writefile{toc}{\contentsline {subsection}{\numberline {2.1}Distribution of external galaxies in overdense regions}{3}{subsection.2.1}}
\newlabel{sec:distribution}{{2.1}{3}{Distribution of external galaxies in overdense regions\relax }{subsection.2.1}{}}
\newlabel{eq:Ngals}{{1}{3}{Distribution of external galaxies in overdense regions\relax }{equation.2.1}{}}
\newlabel{eq:MabLuv}{{3}{3}{Distribution of external galaxies in overdense regions\relax }{equation.2.3}{}}
\@writefile{lot}{\contentsline {table}{\numberline {1}{\ignorespaces Parameters used in the calculation of the ionising background .}}{3}{table.1}}
\newlabel{ta:LFparams}{{1}{3}{Parameters used in the calculation of the ionising background }{table.1}{}}
\newlabel{eq:corrfunct}{{4}{3}{Distribution of external galaxies in overdense regions\relax }{equation.2.4}{}}
\citation{Kuhlen2012}
\citation{Kuhlen2012}
\citation{Kuhlen2012}
\citation{FaucherGiguere2008}
\citation{Songaila2010}
\citation{Prochaska2009}
\citation{Bolton2007}
\citation{Nagamine2010}
\citation{Yajima2011}
\citation{Haardt2012}
\citation{Gnedin2008}
\citation{Razoumov2006}
\citation{Nestor2013}
\citation{Siana2007}
\citation{Siana2010}
\citation{Mostardi2013}
\citation{Kuhlen2012}
\citation{Becker2013}
\citation{Becker2013}
\citation{Kuhlen2012}
\citation{Kuhlen2012}
\citation{FaucherGiguere2008}
\citation{Kuhlen2012}
\citation{Songaila2010}
\citation{Kuhlen2012}
\@writefile{toc}{\contentsline {subsection}{\numberline {2.2}Enhancement of the ionising background in overdense regions due to external sources}{4}{subsection.2.2}}
\newlabel{sec:BG}{{2.2}{4}{Enhancement of the ionising background in overdense regions due to external sources\relax }{subsection.2.2}{}}
\newlabel{eq:ionflux}{{6}{4}{Enhancement of the ionising background in overdense regions due to external sources\relax }{equation.2.6}{}}
\newlabel{eq:Lton}{{7}{4}{Enhancement of the ionising background in overdense regions due to external sources\relax }{equation.2.7}{}}
\citation{Kuhlen2012}
\citation{Dijkstra2007}
\citation{Ouchi2008}
\citation{Cassata2011}
\citation{Kennicutt1998}
\citation{Mostardi2013}
\citation{Nagamine2010}
\citation{Cantalupo2005}
\citation{Bosma1981}
\citation{Kunth1998}
\citation{Momiralda1996}
\citation{Steidel2011}
\@writefile{toc}{\contentsline {subsection}{\numberline {2.3}Ionising radiation due to the central LAE}{5}{subsection.2.3}}
\newlabel{sec:LAE}{{2.3}{5}{Ionising radiation due to the central LAE\relax }{subsection.2.3}{}}
\@writefile{toc}{\contentsline {subsection}{\numberline {2.4}Clumpy outflow model in the halo of the LAE}{5}{subsection.2.4}}
\newlabel{sec:clumps}{{2.4}{5}{Clumpy outflow model in the halo of the LAE\relax }{subsection.2.4}{}}
\citation{Steidel2010}
\citation{DijkstraKramer2012}
\citation{Orsi2012}
\citation{Jones2012}
\citation{Dijkstra2007}
\citation{Yajima2011}
\citation{Verhamme2006}
\citation{Shapley2003}
\citation{Steidel2010}
\citation{Steidel2010}
\citation{Momose2014}
\citation{Steidel2010}
\citation{DijkstraKramer2012}
\citation{Steidel2010}
\citation{Steidel2010}
\citation{Steidel2010}
\citation{DijkstraKramer2012}
\citation{DijkstraKramer2012}
\citation{Steidel2010}
\citation{DijkstraKramer2012}
\@writefile{lof}{\contentsline {figure}{\numberline {1}{\ignorespaces Enhancement of the ionising radiation, expressed in terms of the photo-ionisation rate, in the overdense region at redshift . The thick yellow line indicates the contribution of the central LAE. The red and blue dots indicate the calculations at the points of the 3D grid for the case of the radiation produced by the external sources and for the case of the external sources added to the central LAE respectively. Continuos lines over the points show the mean value at every point. The grey shaded line denotes the average ionising background. {\bf  Left} panel shows the case assuming an optically thin medium and {\bf  right} panel shows the calculations considering a clumpy medium.}}{6}{figure.1}}
\newlabel{fig:ionbgz4}{{1}{6}{Enhancement of the ionising radiation, expressed in terms of the photo-ionisation rate, in the overdense region at redshift . The thick yellow line indicates the contribution of the central LAE. The red and blue dots indicate the calculations at the points of the 3D grid for the case of the radiation produced by the external sources and for the case of the external sources added to the central LAE respectively. Continuos lines over the points show the mean value at every point. The grey shaded line denotes the average ionising background. {\bf Left} panel shows the case assuming an optically thin medium and {\bf right} panel shows the calculations considering a clumpy medium}{figure.1}{}}
\newlabel{eq:radius}{{14}{6}{Clumpy outflow model in the halo of the LAE\relax }{equation.2.14}{}}
\newlabel{eq:vel}{{15}{6}{Clumpy outflow model in the halo of the LAE\relax }{equation.2.15}{}}
\newlabel{eq:nc}{{16}{6}{Clumpy outflow model in the halo of the LAE\relax }{equation.2.16}{}}
\@writefile{lof}{\contentsline {figure}{\numberline {2}{\ignorespaces Values of the parameters of the clumpy outflow in our model at redshift $z=4$. All figures, except for the bottom right one, show radial distances in the x-axis. The bottom right figure shows the impact parameters in the x-axis and both axis are in logarithmic scale.}}{7}{figure.2}}
\newlabel{fig:clumps}{{2}{7}{Values of the parameters of the clumpy outflow in our model at redshift $z=4$. All figures, except for the bottom right one, show radial distances in the x-axis. The bottom right figure shows the impact parameters in the x-axis and both axis are in logarithmic scale}{figure.2}{}}
\newlabel{eq:Nclos}{{17}{7}{Clumpy outflow model in the halo of the LAE\relax }{equation.2.17}{}}
\@writefile{toc}{\contentsline {section}{\numberline {3}Lyman alpha surface brightness profile}{7}{section.3}}
\newlabel{sec:sb}{{3}{7}{Lyman alpha surface brightness profile\relax }{section.3}{}}
\citation{Momose2014}
\citation{Lake2015}
\citation{Matsuda2012}
\citation{Momose2014}
\citation{Matsuda2012}
\citation{Lake2015}
\citation{Lake2015}
\citation{Lake2015}
\citation{Kuhlen2012}
\citation{Gawiser2007}
\citation{Iliev2003}
\citation{Kuhlen2012}
\citation{Kuhlen2012}
\citation{Mostardi2013}
\citation{Nagamine2010}
\citation{DijkstraKramer2012}
\citation{Steidel2010}
\citation{DijkstraKramer2012}
\@writefile{lof}{\contentsline {figure}{\numberline {3}{\ignorespaces Lyman alpha surface brightness profile at redshift $z=4$. The x-axis denotes the impact parameter in physical units. The lower blue line shows the profile created by the central galaxy and the red line shows the contribution due to the external galaxies. The total SB profile is represented by the black line.}}{8}{figure.3}}
\newlabel{fig:sbz4}{{3}{8}{Lyman alpha surface brightness profile at redshift $z=4$. The x-axis denotes the impact parameter in physical units. The lower blue line shows the profile created by the central galaxy and the red line shows the contribution due to the external galaxies. The total SB profile is represented by the black line}{figure.3}{}}
\newlabel{fluxlya}{{19}{8}{Lyman alpha surface brightness profile\relax }{equation.3.19}{}}
\@writefile{toc}{\contentsline {section}{\numberline {4}Summary and discussion}{8}{section.4}}
\newlabel{sec:discussion}{{4}{8}{Summary and discussion\relax }{section.4}{}}
\citation{Matsuda2012}
\citation{Matsuda2012}
\citation{Momose2014}
\citation{Lake2015}
\citation{Zheng2011}
\citation{Hansen2006}
\citation{DijkstraKramer2012}
\citation{Laursen2007}
\citation{Matsuda2012}
\citation{Lake2015}
\bibstyle{apj}
\bibdata{lyahalo}
\bibcite{Adelberger2006}{{1}{2006}{{{Adelberger} {et~al.}}}{{{Adelberger}, {Steidel}, {Kollmeier}, \& {Reddy}}}}
\@writefile{lof}{\contentsline {figure}{\numberline {4}{\ignorespaces Lyman alpha surface brightness profiles for redshifts $z=3$ (continuos line) and $z=5$ (dashed line). From left to right, the three plots show the SB due to the central LAE, the profile due to the external sources and the total SB profile.}}{9}{figure.4}}
\newlabel{fig:sb}{{4}{9}{Lyman alpha surface brightness profiles for redshifts $z=3$ (continuos line) and $z=5$ (dashed line). From left to right, the three plots show the SB due to the central LAE, the profile due to the external sources and the total SB profile}{figure.4}{}}
\@writefile{toc}{\contentsline {section}{\numberline {5}Acknowledgements}{9}{section.5}}
\newlabel{lastpage}{{5}{9}{Acknowledgements\relax }{section.5}{}}
\bibcite{Bahcall1969}{{2}{1969}{{{Bahcall} \& {Spitzer}}}{{}}}
\bibcite{Barnes2014}{{3}{2014}{{{Barnes} {et~al.}}}{{{Barnes}, {Garel}, \& {Kacprzak}}}}
\bibcite{Barnes2011}{{4}{2011}{{{Barnes} {et~al.}}}{{{Barnes}, {Haehnelt}, {Tescari}, \& {Viel}}}}
\bibcite{Becker2013}{{5}{2013}{{{Becker} \& {Bolton}}}{{}}}
\bibcite{Bielby2015}{{6}{2015}{{{Bielby} {et~al.}}}{{{Bielby}, {Tummuangpak}, {Shanks}, {Francke}, {Crighton}, {Ba{\~n}ados}, {Gonz{\'a}lez-L{\'o}pez}, {Infante}, \& {Orsi}}}}
\bibcite{Bolton2007}{{7}{2007}{{{Bolton} \& {Haehnelt}}}{{}}}
\bibcite{Bosma1981}{{8}{1981}{{Bosma}}{{}}}
\bibcite{Bouwens2007}{{9}{2007}{{{Bouwens} {et~al.}}}{{{Bouwens}, {Illingworth}, {Franx}, \& {Ford}}}}
\bibcite{Cantalupo2007}{{10}{2007}{{{Cantalupo} {et~al.}}}{{{Cantalupo}, {Lilly}, \& {Porciani}}}}
\bibcite{Cantalupo2005}{{11}{2005}{{{Cantalupo} {et~al.}}}{{{Cantalupo}, {Porciani}, {Lilly}, \& {Miniati}}}}
\bibcite{Cassata2011}{{12}{2011}{{{Cassata} {et~al.}}}{{{Cassata}, {Le F{\`e}vre}, {Garilli}, {Maccagni}, {Le Brun}, {Scodeggio}, {Tresse}, {Ilbert}, {Zamorani}, {Cucciati}, {Contini}, {Bielby}, {Mellier}, {McCracken}, {Pollo}, {Zanichelli}, {Bardelli}, {Cappi}, {Pozzetti}, {Vergani}, \& {Zucca}}}}
\bibcite{Dijkstra2008}{{13}{2008}{{{Dijkstra} {et~al.}}}{{{Dijkstra}, {Haiman}, {Mesinger}, \& {Wyithe}}}}
\bibcite{DijkstraKramer2012}{{14}{2012}{{{Dijkstra} \& {Kramer}}}{{}}}
\bibcite{Dijkstra2007}{{15}{2007}{{{Dijkstra} {et~al.}}}{{{Dijkstra}, {Lidz}, \& {Wyithe}}}}
\bibcite{FaucherGiguere2008}{{16}{2008}{{{Faucher-Gigu{\`e}re} {et~al.}}}{{{Faucher-Gigu{\`e}re}, {Lidz}, {Hernquist}, \& {Zaldarriaga}}}}
\bibcite{Feldmeier2013}{{17}{2013}{{{Feldmeier} {et~al.}}}{{{Feldmeier}, {Hagen}, {Ciardullo}, {Gronwall}, {Gawiser}, {Guaita}, {Hagen}, {Bond}, {Acquaviva}, {Blanc}, {Orsi}, \& {Kurczynski}}}}
\bibcite{Furlanetto2005}{{18}{2005}{{{Furlanetto} {et~al.}}}{{{Furlanetto}, {Schaye}, {Springel}, \& {Hernquist}}}}
\bibcite{Gawiser2007}{{19}{2007}{{{Gawiser} {et~al.}}}{{{Gawiser}, {Francke}, {Lai}, {Schawinski}, {Gronwall}, {Ciardullo}, {Quadri}, {Orsi}, {Barrientos}, {Blanc}, {Fazio}, {Feldmeier}, {Huang}, {Infante}, {Lira}, {Padilla}, {Taylor}, {Treister}, {Urry}, {van Dokkum}, \& {Virani}}}}
\bibcite{Gnedin2008}{{20}{2008}{{{Gnedin} {et~al.}}}{{{Gnedin}, {Kravtsov}, \& {Chen}}}}
\bibcite{GouldWeinberg1996}{{21}{1996}{{{Gould} \& {Weinberg}}}{{}}}
\bibcite{Haardt2012}{{22}{2012}{{{Haardt} \& {Madau}}}{{}}}
\bibcite{Hansen2006}{{23}{2006}{{{Hansen} \& {Peng Oh}}}{{}}}
\bibcite{HennawiProchaska2013}{{24}{2013}{{{Hennawi} \& {Prochaska}}}{{}}}
\bibcite{Hu1998}{{25}{1998}{{{Hu} {et~al.}}}{{{Hu}, {Cowie}, \& {McMahon}}}}
\bibcite{Iliev2003}{{26}{2003}{{{Iliev} {et~al.}}}{{{Iliev}, {Scannapieco}, {Martel}, \& {Shapiro}}}}
\bibcite{Jiang2013}{{27}{2013}{{{Jiang} {et~al.}}}{{{Jiang}, {Egami}, {Fan}, {Windhorst}, {Cohen}, {Dav{\'e}}, {Finlator}, {Kashikawa}, {Mechtley}, {Ouchi}, \& {Shimasaku}}}}
\bibcite{Jones2012}{{28}{2012}{{{Jones} {et~al.}}}{{{Jones}, {Stark}, \& {Ellis}}}}
\bibcite{Kennicutt1998}{{29}{1998}{{Kennicutt}}{{}}}
\bibcite{Kollmeier2010}{{30}{2010}{{{Kollmeier} {et~al.}}}{{{Kollmeier}, {Zheng}, {Dav{\'e}}, {Gould}, {Katz}, {Miralda-Escud{\'e}}, \& {Weinberg}}}}
\bibcite{Kuhlen2012}{{31}{2012}{{{Kuhlen} \& {Faucher-Gigu{\`e}re}}}{{}}}
\bibcite{Kunth1998}{{32}{1998}{{{Kunth} {et~al.}}}{{{Kunth}, {Mas-Hesse}, {Terlevich}, {Terlevich}, {Lequeux}, \& {Fall}}}}
\bibcite{Lake2015}{{33}{2015}{{{Lake} {et~al.}}}{{{Lake}, {Zheng}, {Cen}, {Sadoun}, {Momose}, \& {Ouchi}}}}
\bibcite{Laursen2007}{{34}{2007}{{{Laursen} \& {Sommer-Larsen}}}{{}}}
\bibcite{Laursen2011}{{35}{2011}{{{Laursen} {et~al.}}}{{{Laursen}, {Sommer-Larsen}, \& {Razoumov}}}}
\bibcite{Matsuda2012}{{36}{2012}{{{Matsuda} {et~al.}}}{{{Matsuda}, {Yamada}, {Hayashino}, {Yamauchi}, {Nakamura}, {Morimoto}, {Ouchi}, {Ono}, {Umemura}, \& {Mori}}}}
\bibcite{Momiralda1996}{{37}{1996}{{{Mo} \& {Miralda-Escude}}}{{}}}
\bibcite{Momose2014}{{38}{2014}{{{Momose} {et~al.}}}{{{Momose}, {Ouchi}, {Nakajima}, {Ono}, {Shibuya}, {Shimasaku}, {Yuma}, {Mori}, \& {Umemura}}}}
\bibcite{Mostardi2013}{{39}{2013}{{{Mostardi} {et~al.}}}{{{Mostardi}, {Shapley}, {Nestor}, {Steidel}, {Reddy}, \& {Trainor}}}}
\bibcite{Nagamine2010}{{40}{2010}{{{Nagamine} {et~al.}}}{{{Nagamine}, {Choi}, \& {Yajima}}}}
\bibcite{Nestor2013}{{41}{2013}{{{Nestor} {et~al.}}}{{{Nestor}, {Shapley}, {Kornei}, {Steidel}, \& {Siana}}}}
\bibcite{Neufeld1991}{{42}{1991}{{Neufeld}}{{}}}
\bibcite{Orsi2012}{{43}{2012}{{{Orsi} {et~al.}}}{{{Orsi}, {Lacey}, \& {Baugh}}}}
\bibcite{Osterbrock1989}{{44}{1989}{{Osterbrock}}{{}}}
\bibcite{Ouchi2008}{{45}{2008}{{{Ouchi} {et~al.}}}{{{Ouchi}, {Shimasaku}, {Akiyama}, {Simpson}, {Saito}, {Ueda}, {Furusawa}, {Sekiguchi}, {Yamada}, {Kodama}, {Kashikawa}, {Okamura}, {Iye}, {Takata}, {Yoshida}, \& {Yoshida}}}}
\bibcite{Prochaska2009}{{46}{2009}{{{Prochaska} {et~al.}}}{{{Prochaska}, {Worseck}, \& {O'Meara}}}}
\bibcite{Rauch2008a}{{47}{2008{a}}{{{Rauch} {et~al.}}}{{{Rauch}, {Haehnelt}, {Bunker}, {Becker}, {Marleau}, {Graham}, {Cristiani}, {Jarvis}, {Lacey}, {Morris}, {Peroux}, {R{\"o}ttgering}, \& {Theuns}}}}
\bibcite{Rauch2008b}{{48}{2008{b}}{{{Rauch} {et~al.}}}{{{Rauch}, {Haehnelt}, {Bunker}, {Becker}, {Marleau}, {Graham}, {Cristiani}, {Jarvis}, {Lacey}, {Morris}, {Peroux}, {Roettgering}, \& {Theuns}}}}
\bibcite{Razoumov2006}{{49}{2006}{{{Razoumov} \& {Sommer-Larsen}}}{{}}}
\bibcite{Reddy2009}{{50}{2009}{{{Reddy} \& {Steidel}}}{{}}}
\bibcite{Schechter1976}{{51}{1976}{{Schechter}}{{}}}
\bibcite{Shapley2003}{{52}{2003}{{{Shapley} {et~al.}}}{{{Shapley}, {Steidel}, {Pettini}, \& {Adelberger}}}}
\bibcite{Siana2007}{{53}{2007}{{{Siana} {et~al.}}}{{{Siana}, {Teplitz}, {Colbert}, {Ferguson}, {Dickinson}, {Brown}, {Conselice}, {de Mello}, {Gardner}, {Giavalisco}, \& {Menanteau}}}}
\bibcite{Siana2010}{{54}{2010}{{{Siana} {et~al.}}}{{{Siana}, {Teplitz}, {Ferguson}, {Brown}, {Giavalisco}, {Dickinson}, {Chary}, {de Mello}, {Conselice}, {Bridge}, {Gardner}, {Colbert}, \& {Scarlata}}}}
\bibcite{Songaila2010}{{55}{2010}{{{Songaila} \& {Cowie}}}{{}}}
\bibcite{Steidel2011}{{56}{2011}{{{Steidel} {et~al.}}}{{{Steidel}, {Bogosavljevi{\'c}}, {Shapley}, {Kollmeier}, {Reddy}, {Erb}, \& {Pettini}}}}
\bibcite{Steidel2010}{{57}{2010}{{{Steidel} {et~al.}}}{{{Steidel}, {Erb}, {Shapley}, {Pettini}, {Reddy}, {Bogosavljevi{\'c}}, {Rudie}, \& {Rakic}}}}
\bibcite{Steidel2001}{{58}{2001}{{{Steidel} {et~al.}}}{{{Steidel}, {Pettini}, \& {Adelberger}}}}
\bibcite{Verhamme2012}{{59}{2012}{{{Verhamme} {et~al.}}}{{{Verhamme}, {Dubois}, {Blaizot}, {Garel}, {Bacon}, {Devriendt}, {Guiderdoni}, \& {Slyz}}}}
\bibcite{Verhamme2006}{{60}{2006}{{{Verhamme} {et~al.}}}{{{Verhamme}, {Schaerer}, \& {Maselli}}}}
\bibcite{Weidinger2005}{{61}{2005}{{{Weidinger} {et~al.}}}{{{Weidinger}, {M{\o }ller}, {Fynbo}, \& {Thomsen}}}}
\bibcite{Yajima2011}{{62}{2011}{{{Yajima} {et~al.}}}{{{Yajima}, {Choi}, \& {Nagamine}}}}
\bibcite{Zheng2011}{{63}{2011}{{{Zheng} {et~al.}}}{{{Zheng}, {Cen}, {Weinberg}, {Trac}, \& {Miralda-Escud{\'e}}}}}
\newlabel{References}{{5}{10}{Acknowledgements\relax }{section*.1}{}}
